Dissertation - 2 2023_Highland_experiment_design
…
Highland site p-rep design

✔ Reading from "CML457_459_Populations".

✔ Range ''22_Highland_Raw_data_tidy''.

Joining, by = "family"

Warning message: 
 Since plotNumber was missing, it was set up to default value of:  1001 2001 

Joining, by = c("rep", "id")Joining, by = "treatment"

# A tibble: 2,000 × 12
      id expt  location year   plot   row column checks entry treatment family  
   <int> <chr> <chr>    <chr> <dbl> <int>  <int> <chr>  <dbl> <chr>     <chr>   
 1     1 Expt1 SITE1    2023   1001     1      1 186      186 G186      HI93-271
 2     2 Expt1 SITE1    2023   1002     1      2 0        574 G574      HI79-370
 3     3 Expt1 SITE1    2023   1003     1      3 0        218 G218      HI73-028
 4     4 Expt1 SITE1    2023   1004     1      4 0        508 G508      HI79-280
 5     5 Expt1 SITE1    2023   1005     1      5 0        567 G567      HI79-306
 6     6 Expt1 SITE1    2023   1006     1      6 115      115 G115      HI79-286
 7     7 Expt1 SITE1    2023   1007     1      7 0        444 G444      HI79-321
 8     8 Expt1 SITE1    2023   1008     1      8 0        384 G384      HI79-191
 9     9 Expt1 SITE1    2023   1009     1      9 1          1 G1        CHECK   
10    10 Expt1 SITE1    2023   1010     1     10 0        482 G482      HI79-104
# … with 1,990 more rows, and 1 more variable: pop <chr>
…
# A tibble: 8 × 3
    rep what       n
  <dbl> <chr>  <int>
1     1 HERMES    53
2     1 HI73     211
3     1 HI79     317
4     1 HI93     212
5     2 HERMES    53
6     2 HI73     211
7     2 HI79     318
8     2 HI93     211

# A tibble: 1,586 × 10
      id  plot   row column checks block   rep treatment pop    family  
   <int> <dbl> <int>  <int> <chr>  <dbl> <dbl> <chr>     <chr>  <chr>   
 1     1   101     1      1 0          1     1 G658      HI93   HI93-179
 2     2   102     1      2 1          1     1 CH1       HERMES HERMES  
 3     3   103     1      3 0          1     1 G205      HI73   HI73-092
 4     4   104     1      4 0          1     1 G133      HI93   HI93-233
 5     5   105     1      5 0          1     1 G641      HI93   HI93-108
 6     6   106     1      6 0          1     1 G321      HI73   HI73-137
 7     7   107     1      7 0          1     1 G418      HI73   HI73-220
 8     8   108     1      8 0          1     1 G44       HI79   HI79-162
 9     9   109     1      9 0          1     1 G636      HI79   HI79-268
10    10   110     1     10 0          1     1 G391      HI73   HI73-248
# … with 1,576 more rows
…
