Dissertation - 3 22_Highland_Experiments_Analysis
…
high_22_models_all_phenos %>%
  select(phenotype, model, aic, H2) %>%
  mutate(aic = round(aic, 0), H2 = round(H2, 2)) %>%
  ungroup()

# A tibble: 40 × 4
   phenotype model     aic    H2
   <chr>     <chr>   <dbl> <dbl>
 1 phc       model01 -4830  0.31
 2 phc       model02 -4870  0.33
 3 phc       model03 -4920  0.32
 4 phc       model04 -4907  0.34
 5 phc       model05 -5004  0.33
 6 anthesis  model01 22198  0.58
 7 anthesis  model02 22183  0.59
 8 anthesis  model03 22156  0.59
 9 anthesis  model04 21990  0.61
10 anthesis  model05 22126  0.59
# … with 30 more rows
…
