Dissertation - 2 Estimate mosaic metrics MAGIC
…
# Estimate the proportion of LODerror > 0 in every marker
errorlod_MEMA_prop_marker <- 
  errorlod_MEMA_df %>%
  pivot_longer(-family) %>%
  filter(!is.infinite(value)) %>%
  group_by(name) %>%
  summarise(prop = sum(value >= 0)/dim(errorlod_MEMA_df)[1])

errorlod_MEMA_prop_marker

# A tibble: 14,176 × 2
   name         prop
   <chr>       <dbl>
 1 1_100088401 0.125
 2 1_100224800 0.115
 3 1_100225275 0.135
 4 1_100229005 0.11 
 5 1_100344399 0.13 
 6 1_100344420 0.13 
 7 1_100344944 0.145
 8 1_100384962 0.13 
 9 1_100385294 0.16 
10 1_100388059 0.135
# … with 14,166 more rows
…
# Identify family pairwise correlation values in the 99 percentile
familyes_high_corr <- 
  pairwise_geno_corr_MEMA %>%
  filter(value >= geno_corr_99_perc) %>%
  arrange(desc(value))

familyes_high_corr

# A tibble: 27 × 3
   family  name    value
   <chr>   <chr>   <dbl>
 1 MEMA210 MEMA211 0.736
 2 MEMA245 MEMA244 0.714
 3 MEMA162 MEMA163 0.695
 4 MEMA128 MEMA127 0.675
 5 MEMA307 MEMA308 0.638
 6 MEMA033 MEMA034 0.631
 7 MEMA133 MEMA132 0.612
 8 MEMA055 MEMA054 0.563
 9 MEMA252 MEMA253 0.517
10 MEMA168 MEMA078 0.496
# … with 17 more rows
…
recomb_chunk_size_MEMA

# A tibble: 22,217 × 10
   family    chr location marker     start   end chunk…¹ p_pos…² p_pos…³ p_chu…⁴
   <chr>   <int>    <dbl> <chr>      <dbl> <dbl>   <dbl>   <dbl>   <dbl>   <dbl>
 1 MEMA156     1     14.0 1_7987929   0     7.99   7.99     1.74    4.91   3.17 
 2 MEMA156     1     34.1 1_18969916  7.99 19.0   11.0      4.91   11.3    6.40 
 3 MEMA156     1     65.8 1_42129633 19.0  42.1   23.2     11.3    23.6   12.3  
 4 MEMA156     1     97.8 1_71985242 42.1  72.0   29.9     23.6    50.5   26.9  
 5 MEMA156     1     98.6 1_72903601 72.0  72.9    0.918   50.5    53.8    3.24 
 6 MEMA156     1     99.4 1_74159005 72.9  74.2    1.26    53.8    54.8    1.01 
 7 MEMA156     1    101.  1_78116605 74.2  78.1    3.96    54.8    57.4    2.69 
 8 MEMA156     1    104.  1_80559358 78.1  80.6    2.44    57.4    58.3    0.826
 9 MEMA156     1    105.  1_81673169 80.6  81.7    1.11    58.3    59.0    0.751
10 MEMA156     1    105.  1_82472265 81.7  82.5    0.799   59.0    59.4    0.420
# … with 22,207 more rows, and abbreviated variable names ¹​chunk_size,
#   ²​p_pos_start, ³​p_pos_end, ⁴​p_chunk_size
…
